^D:\DEVELOP\PRACTICALWORK\PRACTICALWORK_2.2\PRACTICALWORK_2.2\PRACTICALWORK_2.2.CPP
D:\DEVELOP\PRACTICALWORK\PRACTICALWORK_2.2\PRACTICALWORK_2.2\X64\DEBUG\VC143.PDB
D:\DEVELOP\PRACTICALWORK\PRACTICALWORK_2.2\PRACTICALWORK_2.2\X64\DEBUG\VC143.IDB
D:\DEVELOP\PRACTICALWORK\PRACTICALWORK_2.2\PRACTICALWORK_2.2\X64\DEBUG\PRACTICALWORK_2.2.OBJ
